<?xml version="1.0" encoding="utf-8"?>
<svg width="97px" height="97px" viewBox="0 0 97 97" version="1.1" xmlns:xlink="http://www.w3.org/1999/xlink" xmlns="http://www.w3.org/2000/svg">
  <defs>
    <path d="M0 0L97 0L97 97L0 97L0 0Z" id="path_1" />
    <clipPath id="mask_1">
      <use xlink:href="#path_1" />
    </clipPath>
  </defs>
  <g id="Share-3-icon">
    <path d="M0 0L97 0L97 97L0 97L0 0Z" id="Background" fill="none" fill-rule="evenodd" stroke="none" />
    <g clip-path="url(#mask_1)">
      <path d="M59.5711 1.92722e-06C57.9272 0.00203707 56.4483 0.999494 55.8304 2.5229C55.2126 4.0463 55.5789 5.79215 56.757 6.93872L58.9673 9.14901C35.3172 9.49832 16.1666 28.8499 16.1666 52.5811C16.146 54.0387 16.9118 55.3944 18.1708 56.1292C19.4297 56.8641 20.9868 56.8641 22.2458 56.1293C23.5048 55.3945 24.2706 54.0387 24.25 52.5812C24.25 33.2368 39.6637 17.6262 58.9159 17.2521L56.757 19.4111C55.7011 20.4248 55.2758 21.9301 55.6451 23.3464C56.0143 24.7628 57.1204 25.8689 58.5367 26.2381C59.9531 26.6074 61.4584 26.1821 62.4721 25.1262L71.2067 16.3916C72.2156 15.6252 72.8068 14.4301 72.8037 13.1631C72.8006 11.8961 72.2036 10.7038 71.1909 9.94234L62.4721 1.22355C61.7103 0.440376 60.6638 -0.00100023 59.5711 1.92722e-06L59.5711 1.92722e-06ZM13.1354 0.0394758C5.92881 0.0394758 0 5.96829 0 13.1749L0 59.6541C0 66.8607 5.92881 72.7895 13.1354 72.7895L59.6146 72.7895C66.8212 72.7895 72.75 66.8607 72.75 59.6541L72.75 44.4978C72.7706 43.0402 72.0048 41.6845 70.7458 40.9497C69.4869 40.2149 67.9298 40.2149 66.6708 40.9497C65.4118 41.6845 64.6461 43.0402 64.6667 44.4978L64.6667 59.6541C64.6667 62.491 62.4515 64.7061 59.6146 64.7061L13.1354 64.7061C10.2985 64.7061 8.08333 62.491 8.08333 59.6541L8.08333 13.1749C8.08333 10.338 10.2985 8.12281 13.1354 8.12281L28.2917 8.12281C29.7492 8.14342 31.105 7.37762 31.8398 6.11866C32.5746 4.85969 32.5746 3.3026 31.8398 2.04363C31.105 0.784664 29.7492 0.0188662 28.2917 0.0394758L13.1354 0.0394758L13.1354 0.0394758Z" transform="translate(12.125 12.085533)" id="Shape" fill="#FFFFFF" fill-rule="evenodd" stroke="none" />
    </g>
  </g>
</svg>